{
  "resource_id": "267f02e4-0dd9-4a0b-ab54-8fb05d4077fe",
  "fields": [
    {
      "type": "int4",
      "id": "_id"
    },
    {
      "type": "numeric",
      "id": "X"
    },
    {
      "type": "numeric",
      "id": "Y"
    },
    {
      "type": "numeric",
      "id": "OBJECTID"
    },
    {
      "type": "numeric",
      "id": "BillboardID"
    },
    {
      "type": "text",
      "id": "IDByOwner"
    },
    {
      "type": "text",
      "id": "Owner"
    },
    {
      "type": "text",
      "id": "ParcelOwner"
    },
    {
      "type": "text",
      "id": "CODSitus"
    },
    {
      "type": "text",
      "id": "ParcelID"
    },
    {
      "type": "text",
      "id": "PermitID"
    },
    {
      "type": "text",
      "id": "ZoningCode"
    },
    {
      "type": "text",
      "id": "FrontAdvertisement"
    },
    {
      "type": "text",
      "id": "RearAdvertisement"
    },
    {
      "type": "numeric",
      "id": "SupportQuantity"
    },
    {
      "type": "text",
      "id": "SupportMaterial"
    },
    {
      "type": "numeric",
      "id": "LightQuantity"
    },
    {
      "type": "text",
      "id": "LightType"
    },
    {
      "type": "text",
      "id": "AdvertisementCorridor"
    },
    {
      "type": "numeric",
      "id": "DistanceToROW"
    },
    {
      "type": "numeric",
      "id": "EstimatedHeight"
    },
    {
      "type": "numeric",
      "id": "Latitude"
    },
    {
      "type": "numeric",
      "id": "Longitude"
    }
  ],
  "records": [
    {
      "LightType": "Small Square Attached",
      "EstimatedHeight": null,
      "Latitude": "33.21503",
      "PermitID": "0601-0191",
      "CODSitus": "2701 W OAK ST",
      "SupportQuantity": "1",
      "RearAdvertisement": "Texas Health Resources",
      "Longitude": "-97.16752",
      "BillboardID": "1",
      "DistanceToROW": "58",
      "OBJECTID": "1",
      "LightQuantity": "2",
      "IDByOwner": "1123A / 1123B",
      "SupportMaterial": "Metal",
      "Y": "33.215027429025248",
      "X": "-97.16750539862889",
      "ParcelOwner": "AC JIMENEZ LLC",
      "ParcelID": "R108002",
      "ZoningCode": "DC-G",
      "FrontAdvertisement": "Braum's",
      "Owner": "IMPACT",
      "_id": 1,
      "AdvertisementCorridor": "I-35 N"
    },
    {
      "LightType": "Small Square Attached",
      "EstimatedHeight": null,
      "Latitude": "33.23333",
      "PermitID": "0504-0499",
      "CODSitus": "4120 UNIVERSITY DR",
      "SupportQuantity": "1",
      "RearAdvertisement": "National Credit Solutions",
      "Longitude": "-97.17431",
      "BillboardID": "2",
      "DistanceToROW": "100",
      "OBJECTID": "2",
      "LightQuantity": "4",
      "IDByOwner": "1073A / 1073B",
      "SupportMaterial": "Metal",
      "Y": "33.233341156680879",
      "X": "-97.174323936242558",
      "ParcelOwner": "ALLEGIANCE HILLVIEW, LP",
      "ParcelID": "R618924",
      "ZoningCode": "RCC-D",
      "FrontAdvertisement": "Chickasaw Cultural Center",
      "Owner": "IMPACT",
      "_id": 2,
      "AdvertisementCorridor": "I-35 N"
    },
    {
      "LightType": "[None]",
      "EstimatedHeight": "20",
      "Latitude": "33.24349",
      "PermitID": "0601-0279",
      "CODSitus": "",
      "SupportQuantity": "5",
      "RearAdvertisement": "[None]",
      "Longitude": "-97.17638",
      "BillboardID": "3",
      "DistanceToROW": "39",
      "OBJECTID": "3",
      "LightQuantity": "0",
      "IDByOwner": "",
      "SupportMaterial": "Wood",
      "Y": "33.243474364890361",
      "X": "-97.176388137116405",
      "ParcelOwner": "GLORY OF ZION INTERNATIONAL MINISTRIES INC",
      "ParcelID": "R523508",
      "ZoningCode": "NRMU",
      "FrontAdvertisement": "Foster's Western Shop",
      "Owner": "Fairway",
      "_id": 3,
      "AdvertisementCorridor": "I-35 N"
    },
    {
      "LightType": "[None]",
      "EstimatedHeight": "20",
      "Latitude": "33.27167",
      "PermitID": "",
      "CODSitus": "N I-35",
      "SupportQuantity": "5",
      "RearAdvertisement": "Sun Power Trailer & RV Wash",
      "Longitude": "-97.17737",
      "BillboardID": "4",
      "DistanceToROW": "51",
      "OBJECTID": "4",
      "LightQuantity": "0",
      "IDByOwner": "",
      "SupportMaterial": "Wood",
      "Y": "33.271683085900975",
      "X": "-97.177393060378122",
      "ParcelOwner": "CATDENTON 35 INC",
      "ParcelID": "R37692",
      "ZoningCode": "RCR-1",
      "FrontAdvertisement": "Smith Brothers",
      "Owner": "",
      "_id": 4,
      "AdvertisementCorridor": "I-35 N"
    },
    {
      "LightType": "Small Square Ground",
      "EstimatedHeight": "20",
      "Latitude": "33.27881",
      "PermitID": "",
      "CODSitus": "N I-35",
      "SupportQuantity": "7",
      "RearAdvertisement": "Container King",
      "Longitude": "-97.17739",
      "BillboardID": "5",
      "DistanceToROW": "71",
      "OBJECTID": "5",
      "LightQuantity": "4",
      "IDByOwner": "",
      "SupportMaterial": "Wood",
      "Y": "33.27881160610459",
      "X": "-97.177375031491394",
      "ParcelOwner": "CATDENTON 35 INC",
      "ParcelID": "R37353",
      "ZoningCode": "NRMU",
      "FrontAdvertisement": "South West Metal Systems",
      "Owner": "",
      "_id": 5,
      "AdvertisementCorridor": "I-35 N"
    },
    {
      "LightType": "Small Square Ground",
      "EstimatedHeight": "20",
      "Latitude": "33.28118",
      "PermitID": "",
      "CODSitus": "N I-35",
      "SupportQuantity": "5",
      "RearAdvertisement": "Sun Power Trailer & RV Wash",
      "Longitude": "-97.17744",
      "BillboardID": "6",
      "DistanceToROW": "57",
      "OBJECTID": "6",
      "LightQuantity": "2",
      "IDByOwner": "",
      "SupportMaterial": "Wood",
      "Y": "33.281189713228649",
      "X": "-97.177451769186519",
      "ParcelOwner": "CATDENTON 35 INC",
      "ParcelID": "R37353",
      "ZoningCode": "NRMU",
      "FrontAdvertisement": "Babe's Chicken Dinner House",
      "Owner": "",
      "_id": 6,
      "AdvertisementCorridor": "I-35 N"
    },
    {
      "LightType": "[None]",
      "EstimatedHeight": null,
      "Latitude": "33.30116",
      "PermitID": "0601-0280",
      "CODSitus": "I-35",
      "SupportQuantity": "6",
      "RearAdvertisement": "Sun Power Trailer & RV Wash",
      "Longitude": "-97.17712",
      "BillboardID": "7",
      "DistanceToROW": "37",
      "OBJECTID": "7",
      "LightQuantity": "0",
      "IDByOwner": "",
      "SupportMaterial": "Wood",
      "Y": "33.301175059264303",
      "X": "-97.177132825179186",
      "ParcelOwner": "WHOLISTIC FARMS LLC",
      "ParcelID": "R135306",
      "ZoningCode": "NR-2",
      "FrontAdvertisement": "McDonald's",
      "Owner": "Fairway",
      "_id": 7,
      "AdvertisementCorridor": "I-35 N"
    },
    {
      "LightType": "Small Square Attached",
      "EstimatedHeight": "25",
      "Latitude": "33.31453",
      "PermitID": "0601-0171",
      "CODSitus": "",
      "SupportQuantity": "1",
      "RearAdvertisement": "Robson Ranch",
      "Longitude": "-97.17992",
      "BillboardID": "8",
      "DistanceToROW": "91",
      "OBJECTID": "8",
      "LightQuantity": "6",
      "IDByOwner": "2314 / 2315",
      "SupportMaterial": "Metal",
      "Y": "33.314533648572045",
      "X": "-97.179934294253243",
      "ParcelOwner": "",
      "ParcelID": "",
      "ZoningCode": "NR-2",
      "FrontAdvertisement": "Cracker Barrel",
      "Owner": "Lamar",
      "_id": 8,
      "AdvertisementCorridor": "I-35 N"
    },
    {
      "LightType": "[None]",
      "EstimatedHeight": "20",
      "Latitude": "33.30417",
      "PermitID": "",
      "CODSitus": "I-35",
      "SupportQuantity": "9",
      "RearAdvertisement": "Container King",
      "Longitude": "-97.17841",
      "BillboardID": "9",
      "DistanceToROW": "91",
      "OBJECTID": "9",
      "LightQuantity": "0",
      "IDByOwner": "",
      "SupportMaterial": "Wood",
      "Y": "33.304166302952666",
      "X": "-97.17841982221185",
      "ParcelOwner": "DENTON/I-35 & MILAM LLC",
      "ParcelID": "R135303",
      "ZoningCode": "NR-2",
      "FrontAdvertisement": "Best Value RV",
      "Owner": "",
      "_id": 9,
      "AdvertisementCorridor": "I-35 N"
    },
    {
      "LightType": "[None]",
      "EstimatedHeight": "25",
      "Latitude": "33.31986",
      "PermitID": "0601-0281",
      "CODSitus": "I-35",
      "SupportQuantity": "6",
      "RearAdvertisement": "Golf Alabama",
      "Longitude": "-97.17972",
      "BillboardID": "10",
      "DistanceToROW": "30",
      "OBJECTID": "10",
      "LightQuantity": "0",
      "IDByOwner": "",
      "SupportMaterial": "Wood",
      "Y": "33.319844603793257",
      "X": "-97.179731834251626",
      "ParcelOwner": "DENTON/I-35 & MILAM LLC",
      "ParcelID": "R135303",
      "ZoningCode": "NR-2",
      "FrontAdvertisement": "DQ Orange Julius",
      "Owner": "Fairway",
      "_id": 10,
      "AdvertisementCorridor": "I-35 N"
    },
    {
      "LightType": "[None]",
      "EstimatedHeight": "20",
      "Latitude": "33.31841",
      "PermitID": "0601-0282",
      "CODSitus": "12241 I-35",
      "SupportQuantity": "6",
      "RearAdvertisement": "[None]",
      "Longitude": "-97.1809",
      "BillboardID": "11",
      "DistanceToROW": "77",
      "OBJECTID": "11",
      "LightQuantity": "0",
      "IDByOwner": "",
      "SupportMaterial": "Wood",
      "Y": "33.318416572348568",
      "X": "-97.180910162144116",
      "ParcelOwner": "GOODE, GLENN EDWARD",
      "ParcelID": "R271052",
      "ZoningCode": "NR-2",
      "FrontAdvertisement": "Foster's Western Shop",
      "Owner": "Fairway",
      "_id": 11,
      "AdvertisementCorridor": "I-35 N"
    },
    {
      "LightType": "[None]",
      "EstimatedHeight": null,
      "Latitude": "33.29156",
      "PermitID": "0601-0284",
      "CODSitus": "",
      "SupportQuantity": "6",
      "RearAdvertisement": "[None]",
      "Longitude": "-97.1785",
      "BillboardID": "12",
      "DistanceToROW": "59",
      "OBJECTID": "12",
      "LightQuantity": "0",
      "IDByOwner": "",
      "SupportMaterial": "Wood",
      "Y": "33.291560960897868",
      "X": "-97.178503661777896",
      "ParcelOwner": "LINENSCHMIDT",
      "ParcelID": "R135326",
      "ZoningCode": "NR-2",
      "FrontAdvertisement": "Smith Brothers",
      "Owner": "Fairway",
      "_id": 12,
      "AdvertisementCorridor": "I-35 S"
    },
    {
      "LightType": "Small Square Attached",
      "EstimatedHeight": "25",
      "Latitude": "33.28356",
      "PermitID": "0601-0172",
      "CODSitus": "7833 I-35 N",
      "SupportQuantity": "1",
      "RearAdvertisement": "Choctaw Casino & Resort",
      "Longitude": "-97.17871",
      "BillboardID": "13",
      "DistanceToROW": "109",
      "OBJECTID": "13",
      "LightQuantity": "6",
      "IDByOwner": "2317 / 2316",
      "SupportMaterial": "Metal",
      "Y": "33.283561536122463",
      "X": "-97.178721395375845",
      "ParcelOwner": "SMITH, JAMES D",
      "ParcelID": "R135318",
      "ZoningCode": "NR-2",
      "FrontAdvertisement": "Panera Bread",
      "Owner": "Lamar",
      "_id": 13,
      "AdvertisementCorridor": "I-35 S"
    },
    {
      "LightType": "[None]",
      "EstimatedHeight": "25",
      "Latitude": "33.27777",
      "PermitID": "",
      "CODSitus": "7205 I-35 & GANZER RD N",
      "SupportQuantity": "5",
      "RearAdvertisement": "S & J Pharmacy",
      "Longitude": "-97.17859",
      "BillboardID": "14",
      "DistanceToROW": "64",
      "OBJECTID": "14",
      "LightQuantity": "0",
      "IDByOwner": "",
      "SupportMaterial": "Wood",
      "Y": "33.277784107543383",
      "X": "-97.178606523131691",
      "ParcelOwner": "CATDENTON 35 INC",
      "ParcelID": "R37351",
      "ZoningCode": "RCR-1",
      "FrontAdvertisement": "S & J Pharmacy",
      "Owner": "",
      "_id": 14,
      "AdvertisementCorridor": "I-35 S"
    },
    {
      "LightType": "Small Square Ground",
      "EstimatedHeight": "25",
      "Latitude": "33.27637",
      "PermitID": "",
      "CODSitus": "7205 I-35 & GANZER RD N",
      "SupportQuantity": "9",
      "RearAdvertisement": "[None]",
      "Longitude": "-97.17857",
      "BillboardID": "15",
      "DistanceToROW": "61",
      "OBJECTID": "15",
      "LightQuantity": "2",
      "IDByOwner": "",
      "SupportMaterial": "Wood",
      "Y": "33.276386650852672",
      "X": "-97.178585141211201",
      "ParcelOwner": "CATDENTON 35 INC",
      "ParcelID": "R37351",
      "ZoningCode": "RCR-1",
      "FrontAdvertisement": "Motel 6",
      "Owner": "",
      "_id": 15,
      "AdvertisementCorridor": "I-35 S"
    },
    {
      "LightType": "Small Square Attached",
      "EstimatedHeight": "30",
      "Latitude": "33.25864",
      "PermitID": "0601-0173",
      "CODSitus": "",
      "SupportQuantity": "9",
      "RearAdvertisement": "[None]",
      "Longitude": "-97.1784",
      "BillboardID": "16",
      "DistanceToROW": "60",
      "OBJECTID": "16",
      "LightQuantity": "3",
      "IDByOwner": "1738",
      "SupportMaterial": "Wood",
      "Y": "33.25864755411132",
      "X": "-97.178413786399886",
      "ParcelOwner": "WESTVIEW COMMERCIAL LP",
      "ParcelID": "R302373",
      "ZoningCode": "RCC-D",
      "FrontAdvertisement": "Cracker Barrel",
      "Owner": "Lamar",
      "_id": 16,
      "AdvertisementCorridor": "I-35 S"
    },
    {
      "LightType": "Small Square Attached",
      "EstimatedHeight": "30",
      "Latitude": "33.25232",
      "PermitID": "0601-0207",
      "CODSitus": "N I-35",
      "SupportQuantity": "2",
      "RearAdvertisement": "[None]",
      "Longitude": "-97.17808",
      "BillboardID": "17",
      "DistanceToROW": "86",
      "OBJECTID": "17",
      "LightQuantity": "1",
      "IDByOwner": "000564",
      "SupportMaterial": "Metal",
      "Y": "33.252327370246405",
      "X": "-97.178088181902311",
      "ParcelOwner": "HARRIS, RICHARD A JR HERITAGE TRUST",
      "ParcelID": "R161803",
      "ZoningCode": "RCC-D",
      "FrontAdvertisement": "Health Insurance Marketplace",
      "Owner": "Clear Channel",
      "_id": 17,
      "AdvertisementCorridor": "I-35 S"
    },
    {
      "LightType": "[None]",
      "EstimatedHeight": "25",
      "Latitude": "33.25052",
      "PermitID": "0601-0208",
      "CODSitus": "N I-35",
      "SupportQuantity": "4",
      "RearAdvertisement": "[None]",
      "Longitude": "-97.17788",
      "BillboardID": "18",
      "DistanceToROW": "63",
      "OBJECTID": "18",
      "LightQuantity": "0",
      "IDByOwner": "000566",
      "SupportMaterial": "Wood",
      "Y": "33.250531846338305",
      "X": "-97.177891704951534",
      "ParcelOwner": "HARRIS, RICHARD A JR HERITAGE TRUST",
      "ParcelID": "R161803",
      "ZoningCode": "RCC-D",
      "FrontAdvertisement": "[Deteriorated]",
      "Owner": "Clear Channel",
      "_id": 18,
      "AdvertisementCorridor": "I-35 S"
    },
    {
      "LightType": "Small Square Attached",
      "EstimatedHeight": "20",
      "Latitude": "33.24931",
      "PermitID": "",
      "CODSitus": "N I-35",
      "SupportQuantity": "7",
      "RearAdvertisement": "[None]",
      "Longitude": "-97.17784",
      "BillboardID": "19",
      "DistanceToROW": "73",
      "OBJECTID": "19",
      "LightQuantity": "4",
      "IDByOwner": "",
      "SupportMaterial": "Wood",
      "Y": "33.249316809345366",
      "X": "-97.177849513678822",
      "ParcelOwner": "HARRIS, ROBERT W HERITAGE TRUST ETAL",
      "ParcelID": "R563769",
      "ZoningCode": "RCC-N",
      "FrontAdvertisement": "North Texas RV",
      "Owner": "",
      "_id": 19,
      "AdvertisementCorridor": "I-35 S"
    },
    {
      "LightType": "[None]",
      "EstimatedHeight": "25",
      "Latitude": "33.24831",
      "PermitID": "",
      "CODSitus": "N I-35",
      "SupportQuantity": "4",
      "RearAdvertisement": "[Number]",
      "Longitude": "-97.17777",
      "BillboardID": "20",
      "DistanceToROW": "50",
      "OBJECTID": "20",
      "LightQuantity": "0",
      "IDByOwner": "",
      "SupportMaterial": "Wood",
      "Y": "33.248314585487392",
      "X": "-97.177732074026508",
      "ParcelOwner": "HARRIS, ROBERT W HERITAGE TRUST ETAL",
      "ParcelID": "R563769",
      "ZoningCode": "RCC-N",
      "FrontAdvertisement": "Bill Utter Ford",
      "Owner": "",
      "_id": 20,
      "AdvertisementCorridor": "I-35 S"
    },
    {
      "LightType": "[None]",
      "EstimatedHeight": "75",
      "Latitude": "33.24175",
      "PermitID": "",
      "CODSitus": "4701 N I-35",
      "SupportQuantity": "11",
      "RearAdvertisement": "Stonehill Center",
      "Longitude": "-97.17739",
      "BillboardID": "21",
      "DistanceToROW": "60",
      "OBJECTID": "21",
      "LightQuantity": "0",
      "IDByOwner": "",
      "SupportMaterial": "Wood",
      "Y": "33.241755617623923",
      "X": "-97.177400416171722",
      "ParcelOwner": "MILLER, BESS SURVIVOR'S TRUST & MILLER, JA",
      "ParcelID": "R34516",
      "ZoningCode": "RCC-N",
      "FrontAdvertisement": "Mcdonald's / Chevron",
      "Owner": "",
      "_id": 21,
      "AdvertisementCorridor": "I-35 S"
    },
    {
      "LightType": "Small Square Attached",
      "EstimatedHeight": null,
      "Latitude": "33.24006",
      "PermitID": "0601-0209",
      "CODSitus": "4701 N I-35",
      "SupportQuantity": "2",
      "RearAdvertisement": "Health Insurance Marketplace",
      "Longitude": "-97.17748",
      "BillboardID": "22",
      "DistanceToROW": "81",
      "OBJECTID": "22",
      "LightQuantity": "2",
      "IDByOwner": "000574 / 044959",
      "SupportMaterial": "Metal",
      "Y": "33.240061474685099",
      "X": "-97.177383939467873",
      "ParcelOwner": "MILLER, BESS SURVIVOR'S TRUST & MILLER, JA",
      "ParcelID": "R34516",
      "ZoningCode": "RCC-N",
      "FrontAdvertisement": "Whataburger",
      "Owner": "Clear Channel",
      "_id": 22,
      "AdvertisementCorridor": "I-35 S"
    },
    {
      "LightType": "Small Square Attached",
      "EstimatedHeight": null,
      "Latitude": "33.23513",
      "PermitID": "0601-0193",
      "CODSitus": "4309 N I-35",
      "SupportQuantity": "1",
      "RearAdvertisement": "[Number]",
      "Longitude": "-97.1764",
      "BillboardID": "24",
      "DistanceToROW": "70",
      "OBJECTID": "23",
      "LightQuantity": "2",
      "IDByOwner": "1124A / 1124B",
      "SupportMaterial": "Metal",
      "Y": "33.235138047008412",
      "X": "-97.176410121107338",
      "ParcelOwner": "GARNER, JAMES BEALL",
      "ParcelID": "R43507",
      "ZoningCode": "RCC-D",
      "FrontAdvertisement": "Ehrhart's Jewelers",
      "Owner": "IMPACT",
      "_id": 23,
      "AdvertisementCorridor": "I-35 S"
    },
    {
      "LightType": "Small Square Attached",
      "EstimatedHeight": "50",
      "Latitude": "33.2309",
      "PermitID": "0601-0174",
      "CODSitus": "4001 N I-35",
      "SupportQuantity": "1",
      "RearAdvertisement": "TxDOT",
      "Longitude": "-97.17501",
      "BillboardID": "25",
      "DistanceToROW": "68",
      "OBJECTID": "24",
      "LightQuantity": "2",
      "IDByOwner": "2576 / 2575",
      "SupportMaterial": "Metal",
      "Y": "33.230906795576487",
      "X": "-97.17506462837234",
      "ParcelOwner": "SAADIA LLC",
      "ParcelID": "R34524",
      "ZoningCode": "RCC-D",
      "FrontAdvertisement": "IHOP",
      "Owner": "Lamar",
      "_id": 24,
      "AdvertisementCorridor": "I-35 S"
    },
    {
      "LightType": "[None]",
      "EstimatedHeight": "100",
      "Latitude": "33.22284",
      "PermitID": "",
      "CODSitus": "3101 W UNIVERSITY DR",
      "SupportQuantity": "5",
      "RearAdvertisement": "Beaver Builders",
      "Longitude": "-97.17226",
      "BillboardID": "26",
      "DistanceToROW": "90",
      "OBJECTID": "25",
      "LightQuantity": "0",
      "IDByOwner": "",
      "SupportMaterial": "Wood",
      "Y": "33.22282394560289",
      "X": "-97.172277120671453",
      "ParcelOwner": "TEXAS BLUE HORSESHOE LTD",
      "ParcelID": "R34593",
      "ZoningCode": "IC-E",
      "FrontAdvertisement": "Beaver Builders",
      "Owner": "",
      "_id": 25,
      "AdvertisementCorridor": "I-35 S"
    }
  ],
  "_links": {
    "start": "/api/action/datastore_search?limit=25&resource_id=267f02e4-0dd9-4a0b-ab54-8fb05d4077fe",
    "next": "/api/action/datastore_search?offset=25&limit=25&resource_id=267f02e4-0dd9-4a0b-ab54-8fb05d4077fe"
  },
  "limit": 25,
  "total": 89
}