{
  "resource_id": "cebe500f-6324-441a-b1ef-b135fde4456e",
  "fields": [
    {
      "type": "int4",
      "id": "_id"
    },
    {
      "type": "numeric",
      "id": "OBJECTID"
    },
    {
      "type": "numeric",
      "id": "GIS_NR_SDE_SCHOOLS_AREA"
    },
    {
      "type": "numeric",
      "id": "PERIMETER"
    },
    {
      "type": "numeric",
      "id": "POI_"
    },
    {
      "type": "numeric",
      "id": "POI_ID"
    },
    {
      "type": "numeric",
      "id": "SYMBOL"
    },
    {
      "type": "text",
      "id": "SCHOOL"
    },
    {
      "type": "text",
      "id": "ADDRESS"
    },
    {
      "type": "text",
      "id": "ID"
    },
    {
      "type": "text",
      "id": "TYPE"
    },
    {
      "type": "numeric",
      "id": "Shapearea"
    },
    {
      "type": "numeric",
      "id": "Shapelen"
    }
  ],
  "records": [
    {
      "PERIMETER": "3034.76",
      "GIS_NR_SDE_SCHOOLS_AREA": "566828.25",
      "SCHOOL": "McMath Middle School",
      "OBJECTID": "1",
      "POI_": "0",
      "Shapelen": "3034.76039",
      "SYMBOL": "2",
      "POI_ID": "0",
      "Shapearea": "566828.247024",
      "ADDRESS": "1900 Jason Dr",
      "_id": 1,
      "TYPE": "DISD",
      "ID": ""
    },
    {
      "PERIMETER": "2428.124",
      "GIS_NR_SDE_SCHOOLS_AREA": "373268.063",
      "SCHOOL": "Hodge Elementary",
      "OBJECTID": "2",
      "POI_": "4",
      "Shapelen": "2428.123452",
      "SYMBOL": "2",
      "POI_ID": "6",
      "Shapearea": "373268.040723",
      "ADDRESS": "3900 Grant Parkway",
      "_id": 2,
      "TYPE": "DISD",
      "ID": ""
    },
    {
      "PERIMETER": "3305.326",
      "GIS_NR_SDE_SCHOOLS_AREA": "646095.25",
      "SCHOOL": "Wayne Stuart Ryan Elem.",
      "OBJECTID": "3",
      "POI_": "0",
      "Shapelen": "3305.326133",
      "SYMBOL": "2",
      "POI_ID": "0",
      "Shapearea": "646095.213827",
      "ADDRESS": "201 West Ryan Road",
      "_id": 3,
      "TYPE": "DISD",
      "ID": ""
    },
    {
      "PERIMETER": "12760.652",
      "GIS_NR_SDE_SCHOOLS_AREA": "6481128.25",
      "SCHOOL": "University of North Texas",
      "OBJECTID": "5",
      "POI_": "39",
      "Shapelen": "12760.651598",
      "SYMBOL": "1",
      "POI_ID": "35",
      "Shapearea": "6481128.256248",
      "ADDRESS": "2211 N I35 E",
      "_id": 4,
      "TYPE": "COLLEGE",
      "ID": ""
    },
    {
      "PERIMETER": "2041.873",
      "GIS_NR_SDE_SCHOOLS_AREA": "255731.25",
      "SCHOOL": "Evers Park Elementary",
      "OBJECTID": "6",
      "POI_": "0",
      "Shapelen": "2041.872557",
      "SYMBOL": "2",
      "POI_ID": "0",
      "Shapearea": "255731.268012",
      "ADDRESS": "3300 Evers Park",
      "_id": 5,
      "TYPE": "DISD",
      "ID": ""
    },
    {
      "PERIMETER": "299.515",
      "GIS_NR_SDE_SCHOOLS_AREA": "5211.75",
      "SCHOOL": "Touchstone Academy",
      "OBJECTID": "7",
      "POI_": "0",
      "Shapelen": "299.514876",
      "SYMBOL": "4",
      "POI_ID": "0",
      "Shapearea": "5211.741306",
      "ADDRESS": "690 Wye",
      "_id": 6,
      "TYPE": "PRIVATE",
      "ID": ""
    },
    {
      "PERIMETER": "3197.966",
      "GIS_NR_SDE_SCHOOLS_AREA": "634920.125",
      "SCHOOL": "Sam Houston Elementary",
      "OBJECTID": "8",
      "POI_": "76",
      "Shapelen": "3197.965909",
      "SYMBOL": "2",
      "POI_ID": "68",
      "Shapearea": "634920.154647",
      "ADDRESS": "3100 Teasley",
      "_id": 7,
      "TYPE": "DISD",
      "ID": ""
    },
    {
      "PERIMETER": "533.292",
      "GIS_NR_SDE_SCHOOLS_AREA": "16900.25",
      "SCHOOL": "Clear Creek Building",
      "OBJECTID": "9",
      "POI_": "0",
      "Shapelen": "533.291957",
      "SYMBOL": "2",
      "POI_ID": "0",
      "Shapearea": "16900.253327",
      "ADDRESS": "1213 North Locust Street",
      "_id": 8,
      "TYPE": "DISD",
      "ID": ""
    },
    {
      "PERIMETER": "9001.429",
      "GIS_NR_SDE_SCHOOLS_AREA": "2881962.438",
      "SCHOOL": "Billy Ryan High School",
      "OBJECTID": "10",
      "POI_": "35",
      "Shapelen": "9001.429186",
      "SYMBOL": "2",
      "POI_ID": "31",
      "Shapearea": "2881962.422876",
      "ADDRESS": "5101 E McKinney",
      "_id": 9,
      "TYPE": "DISD",
      "ID": ""
    },
    {
      "PERIMETER": "15958.016",
      "GIS_NR_SDE_SCHOOLS_AREA": "6784103.625",
      "SCHOOL": "Texas Woman's University",
      "OBJECTID": "11",
      "POI_": "12",
      "Shapelen": "15958.015826",
      "SYMBOL": "1",
      "POI_ID": "11",
      "Shapearea": "6784103.537748",
      "ADDRESS": "304 Administration Drive",
      "_id": 10,
      "TYPE": "COLLEGE",
      "ID": ""
    },
    {
      "PERIMETER": "2986.821",
      "GIS_NR_SDE_SCHOOLS_AREA": "443192.25",
      "SCHOOL": "Borman Elementary",
      "OBJECTID": "12",
      "POI_": "74",
      "Shapelen": "2986.82054",
      "SYMBOL": "2",
      "POI_ID": "78",
      "Shapearea": "443192.251178",
      "ADDRESS": "1201 Parvin",
      "_id": 11,
      "TYPE": "DISD",
      "ID": ""
    },
    {
      "PERIMETER": "2548.526",
      "GIS_NR_SDE_SCHOOLS_AREA": "327250.5",
      "SCHOOL": "Wilson Elementary",
      "OBJECTID": "13",
      "POI_": "0",
      "Shapelen": "2548.525865",
      "SYMBOL": "2",
      "POI_ID": "0",
      "Shapearea": "327250.546786",
      "ADDRESS": "1501 Emerson",
      "_id": 12,
      "TYPE": "DISD",
      "ID": ""
    },
    {
      "PERIMETER": "2217.216",
      "GIS_NR_SDE_SCHOOLS_AREA": null,
      "SCHOOL": "L. A. Nelson Elementary",
      "OBJECTID": "15",
      "POI_": null,
      "Shapelen": "2217.215588",
      "SYMBOL": "2",
      "POI_ID": null,
      "Shapearea": "83587.555677",
      "ADDRESS": "3909 Teasley Ln",
      "_id": 13,
      "TYPE": "DISD",
      "ID": ""
    },
    {
      "PERIMETER": "3825.514",
      "GIS_NR_SDE_SCHOOLS_AREA": "407159.75",
      "SCHOOL": "Calvary Preparatory Academy",
      "OBJECTID": "16",
      "POI_": "0",
      "Shapelen": "3825.514234",
      "SYMBOL": "4",
      "POI_ID": "0",
      "Shapearea": "407159.676646",
      "ADDRESS": "1910 East University",
      "_id": 14,
      "TYPE": "PRIVATE",
      "ID": ""
    },
    {
      "PERIMETER": "2731.688",
      "GIS_NR_SDE_SCHOOLS_AREA": "430815.75",
      "SCHOOL": "Newton Rayzor Elementary",
      "OBJECTID": "18",
      "POI_": "15",
      "Shapelen": "2731.68761",
      "SYMBOL": "2",
      "POI_ID": "14",
      "Shapearea": "430815.75861",
      "ADDRESS": "1400 Malone",
      "_id": 15,
      "TYPE": "DISD",
      "ID": ""
    },
    {
      "PERIMETER": "1187.256",
      "GIS_NR_SDE_SCHOOLS_AREA": "86390.938",
      "SCHOOL": "Denton Independent School Dist",
      "OBJECTID": "19",
      "POI_": "0",
      "Shapelen": "1187.255425",
      "SYMBOL": "2",
      "POI_ID": "0",
      "Shapearea": "86390.930085",
      "ADDRESS": "1307 North Locust Street",
      "_id": 16,
      "TYPE": "DISD",
      "ID": ""
    },
    {
      "PERIMETER": "2110.473",
      "GIS_NR_SDE_SCHOOLS_AREA": "269906.25",
      "SCHOOL": "Bellaire Academy",
      "OBJECTID": "20",
      "POI_": "0",
      "Shapelen": "2110.472435",
      "SYMBOL": "4",
      "POI_ID": "0",
      "Shapearea": "269906.278887",
      "ADDRESS": "3000 East Mckinney",
      "_id": 17,
      "TYPE": "PRIVATE",
      "ID": ""
    },
    {
      "PERIMETER": "3575.679",
      "GIS_NR_SDE_SCHOOLS_AREA": "543315.75",
      "SCHOOL": "Denton County Juvenile Detent.",
      "OBJECTID": "21",
      "POI_": "0",
      "Shapelen": "3575.679085",
      "SYMBOL": "3",
      "POI_ID": "0",
      "Shapearea": "543315.880548",
      "ADDRESS": "North Woodrow Lane",
      "_id": 18,
      "TYPE": "JAIL",
      "ID": ""
    },
    {
      "PERIMETER": "2069.759",
      "GIS_NR_SDE_SCHOOLS_AREA": null,
      "SCHOOL": "Providence Elementary",
      "OBJECTID": "22",
      "POI_": null,
      "Shapelen": "2069.758977",
      "SYMBOL": "2",
      "POI_ID": null,
      "Shapearea": "80130.082613",
      "ADDRESS": "1000 FM 2931",
      "_id": 19,
      "TYPE": "DISD",
      "ID": ""
    },
    {
      "PERIMETER": "2975.151",
      "GIS_NR_SDE_SCHOOLS_AREA": "396256.375",
      "SCHOOL": "Calhoun Middle School",
      "OBJECTID": "23",
      "POI_": "24",
      "Shapelen": "2975.150912",
      "SYMBOL": "2",
      "POI_ID": "23",
      "Shapearea": "396256.307818",
      "ADDRESS": "709 Congress",
      "_id": 20,
      "TYPE": "DISD",
      "ID": ""
    },
    {
      "PERIMETER": "8514.713",
      "GIS_NR_SDE_SCHOOLS_AREA": "4354147.438",
      "SCHOOL": "Selwyn School",
      "OBJECTID": "24",
      "POI_": "0",
      "Shapelen": "8514.713309",
      "SYMBOL": "4",
      "POI_ID": "0",
      "Shapearea": "4354147.394674",
      "ADDRESS": "3333 West University",
      "_id": 21,
      "TYPE": "PRIVATE",
      "ID": ""
    },
    {
      "PERIMETER": "4254.244",
      "GIS_NR_SDE_SCHOOLS_AREA": null,
      "SCHOOL": "John H. Guyer High School",
      "OBJECTID": "25",
      "POI_": null,
      "Shapelen": "4254.244473",
      "SYMBOL": "2",
      "POI_ID": null,
      "Shapearea": "273812.348753",
      "ADDRESS": "7501 Teasley Ln",
      "_id": 22,
      "TYPE": "DISD",
      "ID": ""
    },
    {
      "PERIMETER": "518.013",
      "GIS_NR_SDE_SCHOOLS_AREA": "16001.75",
      "SCHOOL": "Technology Building",
      "OBJECTID": "26",
      "POI_": "0",
      "Shapelen": "518.013468",
      "SYMBOL": "2",
      "POI_ID": "0",
      "Shapearea": "16001.777454",
      "ADDRESS": "1212 North Locust Street",
      "_id": 23,
      "TYPE": "DISD",
      "ID": ""
    },
    {
      "PERIMETER": "988.921",
      "GIS_NR_SDE_SCHOOLS_AREA": "55858.625",
      "SCHOOL": "Wellspring Academy",
      "OBJECTID": "27",
      "POI_": "0",
      "Shapelen": "988.921486",
      "SYMBOL": "4",
      "POI_ID": "0",
      "Shapearea": "55858.6336",
      "ADDRESS": "1919 N Elm Street",
      "_id": 24,
      "TYPE": "PRIVATE",
      "ID": ""
    },
    {
      "PERIMETER": "3268.118",
      "GIS_NR_SDE_SCHOOLS_AREA": "691491.813",
      "SCHOOL": "C.H. Collins Athletic Complex",
      "OBJECTID": "28",
      "POI_": "0",
      "Shapelen": "3268.117714",
      "SYMBOL": "2",
      "POI_ID": "0",
      "Shapearea": "691491.725716",
      "ADDRESS": "2400 Long Rd",
      "_id": 25,
      "TYPE": "DISD",
      "ID": ""
    }
  ],
  "_links": {
    "start": "/api/action/datastore_search?limit=25&resource_id=cebe500f-6324-441a-b1ef-b135fde4456e",
    "next": "/api/action/datastore_search?offset=25&limit=25&resource_id=cebe500f-6324-441a-b1ef-b135fde4456e"
  },
  "limit": 25,
  "total": 54
}